\relax 
\providecommand\hyper@newdestlabel[2]{}
\providecommand\HyperFirstAtBeginDocument{\AtBeginDocument}
\HyperFirstAtBeginDocument{\ifx\hyper@anchor\@undefined
\global\let\oldcontentsline\contentsline
\gdef\contentsline#1#2#3#4{\oldcontentsline{#1}{#2}{#3}}
\global\let\oldnewlabel\newlabel
\gdef\newlabel#1#2{\newlabelxx{#1}#2}
\gdef\newlabelxx#1#2#3#4#5#6{\oldnewlabel{#1}{{#2}{#3}}}
\AtEndDocument{\ifx\hyper@anchor\@undefined
\let\contentsline\oldcontentsline
\let\newlabel\oldnewlabel
\fi}
\fi}
\global\let\hyper@last\relax 
\gdef\HyperFirstAtBeginDocument#1{#1}
\providecommand\HyField@AuxAddToFields[1]{}
\providecommand\HyField@AuxAddToCoFields[2]{}
\citation{journals/tip/BosseMMWS18}
\citation{journals/tip/BosseMMWS18}
\citation{fundamentalsofMultimedia}
\citation{fundamentalsofMultimedia}
\citation{Wang}
\citation{journals/tip/BosseMMWS18}
\citation{journals/tip/BosseMMWS18}
\citation{Keng}
\citation{journals/tip/BosseMMWS18}
\@writefile{toc}{\contentsline {section}{\numberline {I}Introduction}{1}{section.1}\protected@file@percent }
\citation{oai:arXiv.org:1409.1556}
\citation{KangYLD14}
\citation{KangYLD14}
\citation{KangYLD14}
\citation{KangYLD14}
\citation{journals/tip/BosseMMWS18}
\citation{tid2013}
\citation{live}
\citation{journals/tip/BosseMMWS18}
\citation{journals/tip/BosseMMWS18}
\citation{xiph}
\citation{journals/tip/BosseMMWS18}
\@writefile{toc}{\contentsline {section}{\numberline {II}Methods}{2}{section.2}\protected@file@percent }
\newlabel{sec:method}{{II}{2}{Methods}{section.2}{}}
\@writefile{toc}{\contentsline {subsection}{\numberline {\unhbox \voidb@x \hbox {II-A}}Video Acquisition}{2}{subsection.2.1}\protected@file@percent }
\newlabel{sub:Video Acquisition}{{\unhbox \voidb@x \hbox {II-A}}{2}{Video Acquisition}{subsection.2.1}{}}
\citation{ffmpeg}
\citation{h264}
\citation{h265}
\citation{jpeg}
\citation{jpeg}
\citation{jpeg2000}
\citation{journals/tip/BosseMMWS18}
\citation{h265}
\@writefile{lof}{\contentsline {figure}{\numberline {1}{\ignorespaces  Flow chart showing the main steps of this project.}}{3}{figure.1}\protected@file@percent }
\newlabel{fig:flowChart}{{1}{3}{Flow chart showing the main steps of this project}{figure.1}{}}
\@writefile{toc}{\contentsline {subsection}{\numberline {\unhbox \voidb@x \hbox {II-B}}Video Compression}{3}{subsection.2.2}\protected@file@percent }
\newlabel{sub:Video Compression}{{\unhbox \voidb@x \hbox {II-B}}{3}{Video Compression}{subsection.2.2}{}}
\newlabel{fig:ducks}{{2a}{3}{Subfigure 2a}{subfigure.2.1}{}}
\newlabel{sub@fig:ducks}{{(a)}{a}{Subfigure 2a\relax }{subfigure.2.1}{}}
\newlabel{fig:house}{{2b}{3}{Subfigure 2b}{subfigure.2.2}{}}
\newlabel{sub@fig:house}{{(b)}{b}{Subfigure 2b\relax }{subfigure.2.2}{}}
\newlabel{fig:park}{{2c}{3}{Subfigure 2c}{subfigure.2.3}{}}
\newlabel{sub@fig:park}{{(c)}{c}{Subfigure 2c\relax }{subfigure.2.3}{}}
\newlabel{fig:town}{{2d}{3}{Subfigure 2d}{subfigure.2.4}{}}
\newlabel{sub@fig:town}{{(d)}{d}{Subfigure 2d\relax }{subfigure.2.4}{}}
\@writefile{lof}{\contentsline {figure}{\numberline {2}{\ignorespaces Preview of the videos obtained for compression, frame extraction, and model evaluation.}}{3}{figure.2}\protected@file@percent }
\@writefile{lof}{\contentsline {subfigure}{\numberline{(a)}{\ignorespaces {ducks}}}{3}{subfigure.2.1}\protected@file@percent }
\@writefile{lof}{\contentsline {subfigure}{\numberline{(b)}{\ignorespaces {house}}}{3}{subfigure.2.2}\protected@file@percent }
\@writefile{lof}{\contentsline {subfigure}{\numberline{(c)}{\ignorespaces {park}}}{3}{subfigure.2.3}\protected@file@percent }
\@writefile{lof}{\contentsline {subfigure}{\numberline{(d)}{\ignorespaces {town}}}{3}{subfigure.2.4}\protected@file@percent }
\newlabel{fig:videos}{{2}{3}{Preview of the videos obtained for compression, frame extraction, and model evaluation}{figure.2}{}}
\citation{journals/tip/BosseMMWS18}
\citation{tid2013}
\citation{live}
\citation{imagemagick}
\@writefile{toc}{\contentsline {subsection}{\numberline {\unhbox \voidb@x \hbox {II-C}}Frame Extraction}{4}{subsection.2.3}\protected@file@percent }
\newlabel{sub:Frame Extraction}{{\unhbox \voidb@x \hbox {II-C}}{4}{Frame Extraction}{subsection.2.3}{}}
\@writefile{toc}{\contentsline {subsection}{\numberline {\unhbox \voidb@x \hbox {II-D}}Perceptual Quality Inference}{4}{subsection.2.4}\protected@file@percent }
\newlabel{sub:Perceptual Quality Inference}{{\unhbox \voidb@x \hbox {II-D}}{4}{Perceptual Quality Inference}{subsection.2.4}{}}
\citation{journals/tip/BosseMMWS18}
\@writefile{lot}{\contentsline {table}{\numberline {I}{\ignorespaces Evaluated Parameters}}{5}{table.1}\protected@file@percent }
\newlabel{tab:configurations}{{I}{5}{Evaluated Parameters}{table.1}{}}
\@writefile{toc}{\contentsline {section}{\numberline {III}Results}{5}{section.3}\protected@file@percent }
\newlabel{sec:experiment}{{III}{5}{Results}{section.3}{}}
\@writefile{lof}{\contentsline {figure}{\numberline {3}{\ignorespaces Results for each video using h.264 and h.265 video codecs. In $x$ axis, we vary the values of \texttt  {CRF} while, in primary $y$ axis, we present the normalized results for the FR model (FRM), NR model (NRM), and SSIM. Additionally, a secondary $y$ axis on the right shows the corresponding value in dbs for the PSNR measure.}}{5}{figure.3}\protected@file@percent }
\newlabel{fig:frm}{{3}{5}{Results for each video using h.264 and h.265 video codecs. In $x$ axis, we vary the values of \texttt {CRF} while, in primary $y$ axis, we present the normalized results for the FR model (FRM), NR model (NRM), and SSIM. Additionally, a secondary $y$ axis on the right shows the corresponding value in dbs for the PSNR measure}{figure.3}{}}
\@writefile{lof}{\contentsline {figure}{\numberline {4}{\ignorespaces Results for each video using h.264 and h.265 video codecs. In $x$ axis, we vary the values of \texttt  {CRF} while, in primary $y$ axis, we present the normalized results for the FR model (FRM), NR model (NRM), and SSIM. Additionally, a secondary $y$ axis on the right shows the corresponding value in dbs for the PSNR measure.}}{5}{figure.4}\protected@file@percent }
\newlabel{fig:psnr}{{4}{5}{Results for each video using h.264 and h.265 video codecs. In $x$ axis, we vary the values of \texttt {CRF} while, in primary $y$ axis, we present the normalized results for the FR model (FRM), NR model (NRM), and SSIM. Additionally, a secondary $y$ axis on the right shows the corresponding value in dbs for the PSNR measure}{figure.4}{}}
\citation{journals/tip/BosseMMWS18}
\bibstyle{IEEEtran}
\bibdata{referencias}
\@writefile{lof}{\contentsline {figure}{\numberline {5}{\ignorespaces Results for each video using h.264 and h.265 video codecs. In $x$ axis, we vary the values of \texttt  {CRF} while, in primary $y$ axis, we present the normalized results for the FR model (FRM), NR model (NRM), and SSIM. Additionally, a secondary $y$ axis on the right shows the corresponding value in dbs for the PSNR measure.}}{6}{figure.5}\protected@file@percent }
\newlabel{fig:ssim}{{5}{6}{Results for each video using h.264 and h.265 video codecs. In $x$ axis, we vary the values of \texttt {CRF} while, in primary $y$ axis, we present the normalized results for the FR model (FRM), NR model (NRM), and SSIM. Additionally, a secondary $y$ axis on the right shows the corresponding value in dbs for the PSNR measure}{figure.5}{}}
\@writefile{toc}{\contentsline {section}{\numberline {IV}Conclusions}{6}{section.4}\protected@file@percent }
\newlabel{sec:conclusion}{{IV}{6}{Conclusions}{section.4}{}}
