# Fdb version 3
["bibtex build/article"] 1573294423 "build/article.aux" "build/article.bbl" "build/article" 1573300376
  "/usr/share/texmf-dist/bibtex/bst/IEEEtran/IEEEtran.bst" 1557556964 57748 7c8250ecf02814ce6ddc0cdbb63df1dd ""
  "build/article.aux" 1573300374 7349 b19948e1caf1df7c4c32886162a965da "pdflatex"
  "referencias.bib" 1562960908 18402 216c01822f2bbba7ee5f6b9e492a1051 ""
  (generated)
  "build/article.blg"
  "build/article.bbl"
["pdflatex"] 1573300373 "article.tex" "build/article.pdf" "article" 1573300376
  "/usr/share/texmf-dist/fonts/enc/dvips/base/8r.enc" 1557554374 4850 80dc9bab7f31fb78a000ccfed0e27cab ""
  "/usr/share/texmf-dist/fonts/map/fontname/texfonts.map" 1557554374 3332 103109f5612ad95229751940c61aada0 ""
  "/usr/share/texmf-dist/fonts/tfm/adobe/courier/pcrr7t.tfm" 1557554374 960 379cc0019370a9e0208a0a3f949f847a ""
  "/usr/share/texmf-dist/fonts/tfm/adobe/courier/pcrr8r.tfm" 1557554374 1292 bd42be2f344128bff6d35d98474adfe3 ""
  "/usr/share/texmf-dist/fonts/tfm/adobe/times/ptmb7t.tfm" 1557554374 2172 fd0c924230362ff848a33632ed45dc23 ""
  "/usr/share/texmf-dist/fonts/tfm/adobe/times/ptmb8r.tfm" 1557554374 4524 6bce29db5bc272ba5f332261583fee9c ""
  "/usr/share/texmf-dist/fonts/tfm/adobe/times/ptmbi7t.tfm" 1557554374 2228 e564491c42a4540b5ebb710a75ff306c ""
  "/usr/share/texmf-dist/fonts/tfm/adobe/times/ptmbi8r.tfm" 1557554374 4480 10409ed8bab5aea9ec9a78028b763919 ""
  "/usr/share/texmf-dist/fonts/tfm/adobe/times/ptmr7t.tfm" 1557554374 2124 2601a75482e9426d33db523edf23570a ""
  "/usr/share/texmf-dist/fonts/tfm/adobe/times/ptmr8c.tfm" 1557554374 1352 fa28a7e6d323c65ce7d13d5342ff6be2 ""
  "/usr/share/texmf-dist/fonts/tfm/adobe/times/ptmr8r.tfm" 1557554374 4408 25b74d011a4c66b7f212c0cc3c90061b ""
  "/usr/share/texmf-dist/fonts/tfm/adobe/times/ptmrc7t.tfm" 1557554374 2680 312a2d12b1f1df8ee0212e7ba1962402 ""
  "/usr/share/texmf-dist/fonts/tfm/adobe/times/ptmri7t.tfm" 1557554374 2288 f478fc8fed18759effb59f3dad7f3084 ""
  "/usr/share/texmf-dist/fonts/tfm/adobe/times/ptmri8r.tfm" 1557554374 4640 532ca3305aad10cc01d769f3f91f1029 ""
  "/usr/share/texmf-dist/fonts/tfm/public/amsfonts/cmextra/cmex7.tfm" 1557554374 1004 54797486969f23fa377b128694d548df ""
  "/usr/share/texmf-dist/fonts/tfm/public/amsfonts/cmextra/cmex8.tfm" 1557554374 988 bdf658c3bfc2d96d3c8b02cfc1c94c20 ""
  "/usr/share/texmf-dist/fonts/tfm/public/amsfonts/symbols/msam10.tfm" 1557554374 916 f87d7c45f9c908e672703b83b72241a3 ""
  "/usr/share/texmf-dist/fonts/tfm/public/amsfonts/symbols/msam5.tfm" 1557554374 924 9904cf1d39e9767e7a3622f2a125a565 ""
  "/usr/share/texmf-dist/fonts/tfm/public/amsfonts/symbols/msam7.tfm" 1557554374 928 2dc8d444221b7a635bb58038579b861a ""
  "/usr/share/texmf-dist/fonts/tfm/public/amsfonts/symbols/msbm10.tfm" 1557554374 908 2921f8a10601f252058503cc6570e581 ""
  "/usr/share/texmf-dist/fonts/tfm/public/amsfonts/symbols/msbm5.tfm" 1557554374 940 75ac932a52f80982a9f8ea75d03a34cf ""
  "/usr/share/texmf-dist/fonts/tfm/public/amsfonts/symbols/msbm7.tfm" 1557554374 940 228d6584342e91276bf566bcf9716b83 ""
  "/usr/share/texmf-dist/fonts/tfm/public/cm/cmmi6.tfm" 1557554374 1512 f21f83efb36853c0b70002322c1ab3ad ""
  "/usr/share/texmf-dist/fonts/tfm/public/cm/cmmi8.tfm" 1557554374 1520 eccf95517727cb11801f4f1aee3a21b4 ""
  "/usr/share/texmf-dist/fonts/tfm/public/cm/cmr6.tfm" 1557554374 1300 b62933e007d01cfd073f79b963c01526 ""
  "/usr/share/texmf-dist/fonts/tfm/public/cm/cmr8.tfm" 1557554374 1292 21c1c5bfeaebccffdb478fd231a0997d ""
  "/usr/share/texmf-dist/fonts/tfm/public/cm/cmsy6.tfm" 1557554374 1116 933a60c408fc0a863a92debe84b2d294 ""
  "/usr/share/texmf-dist/fonts/tfm/public/cm/cmsy8.tfm" 1557554374 1120 8b7d695260f3cff42e636090a8002094 ""
  "/usr/share/texmf-dist/fonts/type1/public/amsfonts/cm/cmmi10.pfb" 1557554374 36299 5f9df58c2139e7edcf37c8fca4bd384d ""
  "/usr/share/texmf-dist/fonts/type1/public/amsfonts/cm/cmmi7.pfb" 1557554374 36281 c355509802a035cadc5f15869451dcee ""
  "/usr/share/texmf-dist/fonts/type1/public/amsfonts/cm/cmmi8.pfb" 1557554374 35469 70d41d2b9ea31d5d813066df7c99281c ""
  "/usr/share/texmf-dist/fonts/type1/public/amsfonts/cm/cmr10.pfb" 1557554374 35752 024fb6c41858982481f6968b5fc26508 ""
  "/usr/share/texmf-dist/fonts/type1/public/amsfonts/cm/cmsy10.pfb" 1557554374 32569 5e5ddc8df908dea60932f3c484a54c0d ""
  "/usr/share/texmf-dist/fonts/type1/public/amsfonts/cm/cmsy8.pfb" 1557554374 32626 4f5c1b83753b1dd3a97d1b399a005b4b ""
  "/usr/share/texmf-dist/fonts/type1/urw/courier/ucrr8a.pfb" 1557554374 45758 19968a0990191524e34e1994d4a31cb6 ""
  "/usr/share/texmf-dist/fonts/type1/urw/times/utmb8a.pfb" 1557554374 44729 811d6c62865936705a31c797a1d5dada ""
  "/usr/share/texmf-dist/fonts/type1/urw/times/utmbi8a.pfb" 1557554374 44656 0cbca70e0534538582128f6b54593cca ""
  "/usr/share/texmf-dist/fonts/type1/urw/times/utmr8a.pfb" 1557554374 46026 6dab18b61c907687b520c72847215a68 ""
  "/usr/share/texmf-dist/fonts/type1/urw/times/utmri8a.pfb" 1557554374 45458 a3faba884469519614ca56ba5f6b1de1 ""
  "/usr/share/texmf-dist/fonts/vf/adobe/courier/pcrr7t.vf" 1557554374 1344 6ff472164bf9de0fb2e864b28ac156d9 ""
  "/usr/share/texmf-dist/fonts/vf/adobe/times/ptmb7t.vf" 1557554374 1372 788387fea833ef5963f4c5bffe33eb89 ""
  "/usr/share/texmf-dist/fonts/vf/adobe/times/ptmbi7t.vf" 1557554374 1384 6ac0f8b839230f5d9389287365b243c0 ""
  "/usr/share/texmf-dist/fonts/vf/adobe/times/ptmr7t.vf" 1557554374 1380 0ea3a3370054be6da6acd929ec569f06 ""
  "/usr/share/texmf-dist/fonts/vf/adobe/times/ptmr8c.vf" 1557554374 3556 8a9a6dcbcd146ef985683f677f4758a6 ""
  "/usr/share/texmf-dist/fonts/vf/adobe/times/ptmrc7t.vf" 1557554374 1948 7330aeef3af211edff3b35fb2c12a0fd ""
  "/usr/share/texmf-dist/fonts/vf/adobe/times/ptmri7t.vf" 1557554374 1384 a9d8adaf491ce34e5fba99dc7bbe5f39 ""
  "/usr/share/texmf-dist/tex/context/base/mkii/supp-pdf.mkii" 1557554374 71627 94eb9990bed73c364d7f53f960cc8c5b ""
  "/usr/share/texmf-dist/tex/generic/ifxetex/ifxetex.sty" 1557554374 1458 43ab4710dc82f3edeabecd0d099626b2 ""
  "/usr/share/texmf-dist/tex/generic/oberdiek/gettitlestring.sty" 1557554374 8237 3b62ef1f7e2c23a328c814b3893bc11f ""
  "/usr/share/texmf-dist/tex/generic/oberdiek/hobsub-generic.sty" 1557554374 185392 b99a6d53180e04300c35e18725f31231 ""
  "/usr/share/texmf-dist/tex/generic/oberdiek/hobsub-hyperref.sty" 1557554374 70864 bcd5b216757bd619ae692a151d90085d ""
  "/usr/share/texmf-dist/tex/latex/algorithms/algorithmic.sty" 1557557049 9318 793e9d5a71e74e730d97f6bf5d7e2bca ""
  "/usr/share/texmf-dist/tex/latex/amsfonts/amsfonts.sty" 1557554374 5949 3f3fd50a8cc94c3d4cbf4fc66cd3df1c ""
  "/usr/share/texmf-dist/tex/latex/amsfonts/amssymb.sty" 1557554374 13829 94730e64147574077f8ecfea9bb69af4 ""
  "/usr/share/texmf-dist/tex/latex/amsfonts/umsa.fd" 1557554374 961 6518c6525a34feb5e8250ffa91731cff ""
  "/usr/share/texmf-dist/tex/latex/amsfonts/umsb.fd" 1557554374 961 d02606146ba5601b5645f987c92e6193 ""
  "/usr/share/texmf-dist/tex/latex/amsmath/amsbsy.sty" 1557554374 2211 ca7ce284ab93c8eecdc6029dc5ccbd73 ""
  "/usr/share/texmf-dist/tex/latex/amsmath/amsgen.sty" 1557554374 4161 7f6eb9092061a11f87d08ed13515b48d ""
  "/usr/share/texmf-dist/tex/latex/amsmath/amsmath.sty" 1557554374 85093 77cfa18ddbae4d9b74ade33d843686d3 ""
  "/usr/share/texmf-dist/tex/latex/amsmath/amsopn.sty" 1557554374 4116 32e6abd27229755a83a8b7f18e583890 ""
  "/usr/share/texmf-dist/tex/latex/amsmath/amstext.sty" 1557554374 2432 8ff93b1137020e8f21930562a874ae66 ""
  "/usr/share/texmf-dist/tex/latex/base/ifthen.sty" 1557554374 5161 c004ea5a189d4bdcf42e86754ad75a58 ""
  "/usr/share/texmf-dist/tex/latex/base/textcomp.sty" 1557554374 16156 a293f9cfd4f8552bb5d1028389f53e72 ""
  "/usr/share/texmf-dist/tex/latex/base/ts1cmr.fd" 1557554374 2433 cdefd2509a12ba58001f2024f63aae9a ""
  "/usr/share/texmf-dist/tex/latex/base/ts1enc.def" 1557554374 7769 97b639552068544f7c98d557abb19f41 ""
  "/usr/share/texmf-dist/tex/latex/base/ts1enc.dfu" 1557554374 4973 923be56c54607ca99f7cc085a8c7e52b ""
  "/usr/share/texmf-dist/tex/latex/caption/caption3.sty" 1557554374 68510 943558eecf41da4e76fc614fd7f5deff ""
  "/usr/share/texmf-dist/tex/latex/cite/cite.sty" 1557554374 26218 19edeff8cdc2bcb704e8051dc55eb5a7 ""
  "/usr/share/texmf-dist/tex/latex/graphics-cfg/color.cfg" 1557554374 1213 620bba36b25224fa9b7e1ccb4ecb76fd ""
  "/usr/share/texmf-dist/tex/latex/graphics-cfg/graphics.cfg" 1557554374 1224 978390e9c2234eab29404bc21b268d1e ""
  "/usr/share/texmf-dist/tex/latex/graphics-def/pdftex.def" 1557554374 17334 520b9b85ad8a2a48eda3f643e27a5179 ""
  "/usr/share/texmf-dist/tex/latex/graphics/graphics.sty" 1557554374 15272 5a97061616e0c8b2aa79c6615ff769f4 ""
  "/usr/share/texmf-dist/tex/latex/graphics/graphicx.sty" 1557554374 9063 d0a305975932762117cd1f06a582f896 ""
  "/usr/share/texmf-dist/tex/latex/graphics/keyval.sty" 1557554374 2591 6404d0c7d28505fb38ce0d86c2e28ae7 ""
  "/usr/share/texmf-dist/tex/latex/graphics/trig.sty" 1557554374 3977 cb9221976ed8a183afad65b59aa8629a ""
  "/usr/share/texmf-dist/tex/latex/hyperref/hpdftex.def" 1557554374 51744 477aad43ad6a7ba8c462d20c3e0808e0 ""
  "/usr/share/texmf-dist/tex/latex/hyperref/hyperref.sty" 1557554374 236074 d994150943d35d6af0d586a60cc78dd1 ""
  "/usr/share/texmf-dist/tex/latex/hyperref/nameref.sty" 1557554374 12949 81e4e808884a8f0e276b69410e234656 ""
  "/usr/share/texmf-dist/tex/latex/hyperref/pd1enc.def" 1557554374 14098 b4e1ecab4699a0341b8e1349e4c53fb1 ""
  "/usr/share/texmf-dist/tex/latex/latexconfig/epstopdf-sys.cfg" 1557554374 678 4792914a8f45be57bb98413425e4c7af ""
  "/usr/share/texmf-dist/tex/latex/latexconfig/hyperref.cfg" 1557554374 235 6031e5765137be07eed51a510b2b8fb7 ""
  "/usr/share/texmf-dist/tex/latex/listings/listings.cfg" 1557554374 1830 8ebf24b6078970a5f7b81814f96ef6bc ""
  "/usr/share/texmf-dist/tex/latex/listings/listings.sty" 1557554374 80450 ccf6250c881393368e27f23b483782ab ""
  "/usr/share/texmf-dist/tex/latex/listings/lstlang1.sty" 1557554374 204271 b2a47aa3eb69a0d1d582edd851ff8f19 ""
  "/usr/share/texmf-dist/tex/latex/listings/lstmisc.sty" 1557554374 77022 9205b75844150972cc4077e78ec26b25 ""
  "/usr/share/texmf-dist/tex/latex/oberdiek/auxhook.sty" 1557554374 3834 4363110eb0ef1eb2b71c8fcbcdb6c357 ""
  "/usr/share/texmf-dist/tex/latex/oberdiek/epstopdf-base.sty" 1557554374 12095 5337833c991d80788a43d3ce26bd1c46 ""
  "/usr/share/texmf-dist/tex/latex/oberdiek/grfext.sty" 1557554374 7075 2fe3d848bba95f139de11ded085e74aa ""
  "/usr/share/texmf-dist/tex/latex/oberdiek/kvoptions.sty" 1557554374 22417 1d9df1eb66848aa31b18a593099cf45c ""
  "/usr/share/texmf-dist/tex/latex/oberdiek/rerunfilecheck.sty" 1557554374 9581 023642318cef9f4677efe364de1e2a27 ""
  "/usr/share/texmf-dist/tex/latex/psnfss/omlptm.fd" 1557554374 577 008ea4bacb8ccf8c2a39dc94e000ef1f ""
  "/usr/share/texmf-dist/tex/latex/psnfss/omsptm.fd" 1557554374 576 95c2c0baea9c719a4be29a3d4122498b ""
  "/usr/share/texmf-dist/tex/latex/psnfss/ot1pcr.fd" 1557554374 985 1ed784d7bfe47179f3550d2303b073f8 ""
  "/usr/share/texmf-dist/tex/latex/psnfss/ot1ptm.fd" 1557554374 961 15056f4a61917ceed3a44e4ac11fcc52 ""
  "/usr/share/texmf-dist/tex/latex/psnfss/ts1ptm.fd" 1557554374 619 96f56dc5d1ef1fe1121f1cfeec70ee0c ""
  "/usr/share/texmf-dist/tex/latex/subfig/subfig.sty" 1557554374 21369 9ef165ca6df8815c92e693146a376c92 ""
  "/usr/share/texmf-dist/tex/latex/url/url.sty" 1557554374 12796 8edb7d69a20b857904dd0ea757c14ec9 ""
  "/usr/share/texmf-dist/tex/latex/xcolor/xcolor.sty" 1557554374 55589 34128738f682d033422ca125f82e5d62 ""
  "/usr/share/texmf-dist/web2c/texmf.cnf" 1557554374 33301 a3134070eacafb10b1f371612ce2650d ""
  "/var/lib/texmf/fonts/map/pdftex/updmap/pdftex.map" 1568977390 3233970 ab845fc2b5afa9d5e4a65f288842af78 ""
  "/var/lib/texmf/web2c/pdftex/pdflatex.fmt" 1568977356 7979416 0315a7fd72913a3ff1d262fe3e5d48db ""
  "IEEEtran.cls" 1562794141 281786 6728957f298086dedcfad85b7a6811a7 ""
  "article.tex" 1573300372 29453 61029e9b08beae16e52e5db5854ac852 ""
  "build/article.aux" 1573300374 7349 b19948e1caf1df7c4c32886162a965da "pdflatex"
  "build/article.bbl" 1573294423 5001 417b8068d247eab5d254effcb5e3e5fc "bibtex build/article"
  "build/article.out" 1573300374 497 a4575909b0627dd2527deb655027a623 "pdflatex"
  "images/ducks.pdf" 1562794141 3529051 04d7969b937a774d3470696e13b9f669 ""
  "images/fluxogram.png" 1573289198 117097 0055730c0c9bd8396c8d7ae9faf5b80d ""
  "images/frm-inv.pdf" 1573294084 7650 aee9a899b02f95256ea1894c8eeb1515 ""
  "images/house.pdf" 1562794141 3529227 ec4e6038ac28806470c7228449671d15 ""
  "images/nrm-inv.pdf" 1573294084 7662 923cc7efec3eff0f14c0ffad2400cd7c ""
  "images/park.pdf" 1562794141 3529224 291fc33b0cd8bc0f1fc7aceb3b527e86 ""
  "images/psnr.pdf" 1573293757 7675 913ed69e560d940fe18dd6d6a354b0f3 ""
  "images/ssim.pdf" 1573293757 7646 2d7da36b9370bc6550caac58cf6857df ""
  "images/town.pdf" 1562794141 3529221 358e9967aff8fa1b7bf611357713b1aa ""
  (generated)
  "build/article.log"
  "build/article.aux"
  "build/article.out"
  "build/article.pdf"
