This is BibTeX, Version 0.99d (TeX Live 2019/Arch Linux)
Capacity: max_strings=100000, hash_size=100000, hash_prime=85009
The top-level auxiliary file: article.aux
The style file: IEEEtran.bst
Reallocated singl_function (elt_size=8) to 100 items from 50.
Reallocated singl_function (elt_size=8) to 100 items from 50.
Reallocated singl_function (elt_size=8) to 100 items from 50.
Reallocated wiz_functions (elt_size=8) to 6000 items from 3000.
Reallocated singl_function (elt_size=8) to 100 items from 50.
Database file #1: referencias.bib
-- IEEEtran.bst version 1.14 (2015/08/26) by Michael Shell.
-- http://www.michaelshell.org/tex/ieeetran/bibtex/
-- See the "IEEEtran_bst_HOWTO.pdf" manual for usage information.

Done.
You've used 15 entries,
            4087 wiz_defined-function locations,
            925 strings with 10396 characters,
and the built_in function-call counts, 11068 in all, are:
= -- 875
> -- 278
< -- 86
+ -- 152
- -- 50
* -- 534
:= -- 1673
add.period$ -- 32
call.type$ -- 15
change.case$ -- 12
chr.to.int$ -- 198
cite$ -- 15
duplicate$ -- 776
empty$ -- 894
format.name$ -- 62
if$ -- 2567
int.to.chr$ -- 0
int.to.str$ -- 15
missing$ -- 145
newline$ -- 78
num.names$ -- 15
pop$ -- 346
preamble$ -- 1
purify$ -- 0
quote$ -- 2
skip$ -- 856
stack$ -- 0
substring$ -- 474
swap$ -- 643
text.length$ -- 20
text.prefix$ -- 0
top$ -- 5
type$ -- 15
warning$ -- 0
while$ -- 43
width$ -- 17
write$ -- 174
